<svg width="184" height="33.7" xmlns="http://www.w3.org/2000/svg">
 <style type="text/css">.st0{fill-rule:evenodd;clip-rule:evenodd;fill:#2b71b1;}</style>

 <g>
  <title>background</title>
  <rect fill="none" id="canvas_background" height="402" width="582" y="-1" x="-1"/>
 </g>
 <g>
  <title>Layer 1</title>
  <path d="m79.600912,12.449984l0,3.8l5.8,0c1,0 1.9,-0.9 1.9,-1.9c0,-1 -0.9,-1.9 -1.9,-1.9l-5.8,0zm0,15.1l-3.8,0l0,-7.5l0,-11.4l3.8,0l5.8,0c3.1,0 5.7,2.5 5.7,5.7l0,0c0,3.1 -2.5,5.7 -5.7,5.7l-5.8,0l0,7.5zm2.1,-6.4l3.7,6.4l4.4,0l-3.7,-6.4l-4.4,0z" class="st0" id="XMLID_20_"/>
  <path d="m116.400085,8.649984l7.6,0c4.2,0 7.6,3.4 7.6,7.6l0,3.7c0,4.2 -3.4,7.6 -7.6,7.6l-7.6,0l0,-3.8c2.5,0 5.1,0 7.6,0c2.1,0 3.8,-1.7 3.8,-3.8l0,-3.7c0,-2.1 -1.7,-3.8 -3.8,-3.8l-3.8,0l0,10.2l-3.8,0l0,-14z" class="st0" id="XMLID_5_"/>
  <polygon points="101.85093832015991,8.649983406066895 105.65092611312866,8.649983406066895 112.25093221664429,27.549983978271484 108.45092916488647,27.549983978271484 107.5509352684021,24.94998550415039 101.0509352684021,24.94998550415039 102.45092916488647,21.14998435974121 106.25093221664429,21.14998435974121 103.75093221664429,14.049983978271484 98.95092916488647,27.549983978271484 95.15092611312866,27.549983978271484 " class="st0" id="XMLID_4_"/>
  <path transform="rotate(-179.93710327148438 28.605880737304688,11.496434211730957) " d="m25.205879,22.996434l10.7,-17l10.5,-6c-5.4,0 -10.8,0 -16.2,0l1.3,1.2l-20.7,21.8l9,0l5.6,-6.5l-4.2,6.5l4,0z" class="st0" id="XMLID_3_"/>
  <polygon transform="rotate(-0.8769016861915588 14.51181030273447,6.080961227417024) " points="14.411808013916016,12.180961608886719 17.911808013916016,5.980960845947266 29.011810302734375,-0.019039154052734375 14.711811065673828,-0.019039154052734375 14.611808776855469,-0.019039154052734375 12.811809539794922,-0.019039154052734375 13.611808776855469,0.7809600830078125 8.711811065673828,4.880960464477539 0.011810302734375,12.180961608886719 9.311809539794922,12.180961608886719 13.411808013916016,7.480960845947266 10.311809539794922,12.180961608886719 " class="st0" id="XMLID_2_"/>
  <polygon transform="rotate(-0.19778688251972198 48.84991836547931,16.861801147460838) " points="42.14991319179535,33.7118034362793 60.04991090297699,6.011800765991211 69.94991624355316,0.011800863780081272 53.64991319179535,0.011800863780081272 55.3499139547348,1.6118009090423584 27.749911665916443,33.7118034362793 36.3499139547348,33.7118034362793 43.549914717674255,25.311800003051758 38.04991090297699,33.7118034362793 " class="st0" id="XMLID_1_"/>
  <polygon transform="rotate(88.94361877441406 145.45037841796878,17.599990844726552) " points="143.6003863811493,8.149990499019623 147.40037417411804,8.149990499019623 154.00038027763367,27.049987256526947 150.20037722587585,27.049987256526947 149.30038332939148,24.449988782405853 142.80038332939148,24.449988782405853 144.20037722587585,20.649987637996674 148.00038027763367,20.649987637996674 145.50038027763367,13.549990117549896 140.70037722587585,27.049987256526947 136.90037417411804,27.049987256526947 " class="st0" id="svg_3"/>
  <path d="m162.599823,12.19999l0,3.8l5.8,0c1,0 1.9,-0.9 1.9,-1.9c0,-1 -0.9,-1.9 -1.9,-1.9l-5.8,0zm0,15.1l-3.8,0l0,-7.5l0,-11.4l3.8,0l5.8,0c3.1,0 5.7,2.5 5.7,5.7l0,0c0,3.1 -2.5,5.7 -5.7,5.7l-5.8,0l0,7.5zm2.1,-6.4l3.7,6.4l4.4,0l-3.7,-6.4l-4.4,0z" class="st0" id="svg_4"/>
 </g>
</svg>